…
    ##         variable_name from   to   obs
    ## 1   Income Inequality 1820 2000   866
    ## 2           Inflation 1500 2010 16676
    ## 3 Labourers Real Wage 1820 2008  5053

``` r
clio_get(c("income inequality", "labouresrs real wage"))
```

    ## Joining, by = c("ccode", "country.name", "year")

    ## # A tibble: 5,702 x 5
    ##    ccode country.name  year `Income Inequality` `Labourers Real Wage`
    ##    <dbl> <chr>        <dbl>               <dbl>                 <dbl>
    ##  1    24 Angola        1820                48.9                 NA   
    ##  2    32 Argentina     1820                47.1                 NA   
    ##  3    40 Austria       1820                53.4                 NA   
    ##  4    56 Belgium       1820                62.4                 16.6 
    ##  5   204 Benin         1820                48.0                 NA   
    ##  6    76 Brazil        1820                47.1                 NA   
    ##  7   120 Cameroon      1820                56.2                 NA   
    ##  8   124 Canada        1820                45.1                 NA   
    ##  9   152 Chile         1820                47.1                 NA   
    ## 10   156 China         1820                44.9                  3.71
    ## # … with 5,692 more rows

``` r
clio_get(c("infant mortality", "zinc production"))
```

    ## Joining, by = c("ccode", "country.name", "year")

    ## # A tibble: 14,570 x 5
    ##    ccode country.name    year `Infant Mortality` `Zinc Production`
    ##    <dbl> <chr>          <dbl>              <dbl>             <dbl>
    ##  1   191 Croatia         1810               175                 NA
    ##  2   246 Finland         1810               200.                 0
    ##  3   826 United Kingdom  1810               141                  0
    ##  4    40 Austria         1820               188.                 0
    ##  5   191 Croatia         1820               150                 NA
    ##  6   246 Finland         1820               198.                 0
    ##  7   250 France          1820               182                  0
    ##  8   528 Netherlands     1820               179                 NA
    ##  9   826 United Kingdom  1820               153                  0
    ## 10    40 Austria         1830               251.                 0
    ## # … with 14,560 more rows
…
``` r
clio_get(c("Zinc production", "Gold production"), 
         from = 1800, to = 1920, 
         countries = c("Botswana", "Zimbabwe", 
                       mergetype = inner_join))
```

    ## Joining, by = c("ccode", "country.name", "year")

    ## # A tibble: 242 x 5
    ##    ccode country.name  year `Zinc Production` `Gold Production`
    ##    <dbl> <chr>        <dbl>             <dbl>             <dbl>
    ##  1    72 Botswana      1800                NA                 0
    ##  2   716 Zimbabwe      1800                NA                 0
    ##  3    72 Botswana      1801                NA                 0
    ##  4   716 Zimbabwe      1801                NA                 0
    ##  5    72 Botswana      1802                NA                 0
    ##  6   716 Zimbabwe      1802                NA                 0
    ##  7    72 Botswana      1803                NA                 0
    ##  8   716 Zimbabwe      1803                NA                 0
    ##  9    72 Botswana      1804                NA                 0
    ## 10   716 Zimbabwe      1804                NA                 0
    ## # … with 232 more rows

``` r
clio_get(c("Armed conflicts internal", "Gold production", "Armed conflicts international"), 
         mergetype = inner_join)
```

    ## Joining, by = c("ccode", "country.name", "year")
    ## Joining, by = c("ccode", "country.name", "year")

    ## # A tibble: 34,559 x 6
    ##    ccode country.name  year `Armed conflicts… `Gold Productio… `Armed Conflicts…
    ##    <dbl> <chr>        <dbl>             <dbl>            <dbl>             <dbl>
    ##  1    12 Algeria       1681                 0              0                   1
    ##  2    24 Angola        1681                 0              0                   1
    ##  3    32 Argentina     1681                 0              0                   0
    ##  4    51 Armenia       1681                 0              0                   0
    ##  5    36 Australia     1681                 0              0                   0
    ##  6    40 Austria       1681                 0              0                   0
    ##  7    31 Azerbaijan    1681                 0              0                   0
    ##  8    68 Bolivia       1681                 0              0                   0
    ##  9    72 Botswana      1681                 0              0                   0
    ## 10    76 Brazil        1681                 0              1.5                 0
    ## # … with 34,549 more rows

The kind of merge is customizable . The argument name is \(mergetype\).
And it takes the values full\_join (default), left\_join, inner\_join,
outer\_join, etc. if you have loaded `dplyr`.

``` r
clio_get_cat("finanz", list = F, from = 1800, to = 1900)
```

    ## Joining, by = c("ccode", "country.name", "year")
    ## Joining, by = c("ccode", "country.name", "year")
    ## Joining, by = c("ccode", "country.name", "year")
    ## Joining, by = c("ccode", "country.name", "year")

    ## # A tibble: 7,074 x 8
    ##    ccode country.name  year `Exchange Rates… `Exchange Rates… `Gold Standard`
    ##    <dbl> <chr>        <dbl>            <dbl>            <dbl>           <dbl>
    ##  1    40 Austria       1800            10.1             NA                  0
    ##  2   124 Canada        1800             1.08            NA                  0
    ##  3   156 China         1800             3.64            NA                  0
    ##  4   208 Denmark       1800             5.09            NA                  0
    ##  5   276 Germany       1800            11.9              3.00               0
    ##  6   372 Ireland       1800             1.11            NA                  0
    ##  7   380 Italy         1800             5.24            NA                  0
    ##  8   428 Latvia        1800             3.78            NA                 NA
    ##  9   528 Netherlands   1800            11.3              2.61               0
    ## 10   616 Poland        1800            21.3             NA                  0
    ## # … with 7,064 more rows, and 2 more variables: `Long-Term Government Bond
    ## #   Yield` <dbl>, `Total Gross Central Government Debt as a Percentage of
    ## #   GDP` <dbl>
…
    ## Joining, by = c("ccode", "country.name", "year")
    ## Joining, by = c("ccode", "country.name", "year")
    ## Joining, by = c("ccode", "country.name", "year")
    ## Joining, by = c("ccode", "country.name", "year")
    ## Joining, by = c("ccode", "country.name", "year")
    ## Joining, by = c("ccode", "country.name", "year")
    ## Joining, by = c("ccode", "country.name", "year")
    ## Joining, by = c("ccode", "country.name", "year")
    ## Joining, by = c("ccode", "country.name", "year")
    ## Joining, by = c("ccode", "country.name", "year")
    ## Joining, by = c("ccode", "country.name", "year")

    ## # A tibble: 1,197 x 15
    ##    ccode country.name  year `Aluminium Prod… `Bauxite Produc… `Copper Product…
    ##    <dbl> <chr>        <dbl>            <dbl>            <dbl>            <dbl>
    ##  1    36 Australia     1880                0                0              0  
    ##  2    76 Brazil        1880                0                0              0  
    ##  3   156 China         1880                0                0              0  
    ##  4   356 India         1880                0                0              0  
    ##  5   364 Iran          1880                0                0              0  
    ##  6   398 Kazakhstan    1880                0                0              0  
    ##  7   643 Russia        1880                0                0              3.2
    ##  8   724 Spain         1880                0                0             36.6
    ##  9   840 United Stat…  1880                0                0             27  
    ## 10    36 Australia     1881                0                0              0  
    ## # … with 1,187 more rows, and 9 more variables: `Gold Production` <dbl>, `Iron
    ## #   Ore Production` <dbl>, `Lead Production` <dbl>, `Manganese
    ## #   Production` <dbl>, `Nickel Production` <dbl>, `Silver Production` <dbl>,
    ## #   `Tin Production` <dbl>, `Tungsten Production` <dbl>, `Zinc
    ## #   Production` <dbl>

``` r
clio_get(c("Tin Production", "income inequality"), from = 1800, countries = c("Netherlands", "Russia"))
```

    ## Joining, by = c("ccode", "country.name", "year")

    ## # A tibble: 225 x 5
    ##    ccode country.name  year `Tin Production` `Income Inequality`
    ##    <dbl> <chr>        <dbl>            <dbl>               <dbl>
    ##  1   643 Russia        1800                0                  NA
    ##  2   643 Russia        1801                0                  NA
    ##  3   643 Russia        1802                0                  NA
    ##  4   643 Russia        1803                0                  NA
    ##  5   643 Russia        1804                0                  NA
    ##  6   643 Russia        1805                0                  NA
    ##  7   643 Russia        1806                0                  NA
    ##  8   643 Russia        1807                0                  NA
    ##  9   643 Russia        1808                0                  NA
    ## 10   643 Russia        1809                0                  NA
    ## # … with 215 more rows

``` r
clio_get_cat("labor relation")
```

    ## Joining, by = c("ccode", "country.name", "year")
    ## Joining, by = c("ccode", "country.name", "year")

    ## # A tibble: 4,951 x 6
    ##    ccode country.name  year `Number of Days … `Number of Labou… `Number of Work…
    ##    <dbl> <chr>        <dbl>             <dbl>             <dbl>            <dbl>
    ##  1    32 Argentina     1927            363492                56            26888
    ##  2    36 Australia     1927           1713581               441           200757
    ##  3    40 Austria       1927            686560               216            35300
    ##  4    56 Belgium       1927           1658836               186            45071
    ##  5   100 Bulgaria      1927             57196                23             2919
    ##  6   124 Canada        1927            152570                74            22299
    ##  7   156 China         1927           7622029               117           881289
    ##  8   208 Denmark       1927            119000                17             2851
    ##  9   233 Estonia       1927              3067                 5              218
    ## 10   246 Finland       1927           1528182                79            13368
    ## # … with 4,941 more rows
…
